     100 files     162 text files.
classified 162 filesDuplicate file check 162 files (138 known unique)Unique:      100 files                                               143 unique files.                              
Counting:  100Wrote ./cloc/ignored.txt
Wrote ./cloc/counted.txt
    4167 files ignored.

http://cloc.sourceforge.net v 1.60  T=0.65 s (186.6 files/s, 11473.7 lines/s)
-------------------------------------------------------------------------------
Language                     files          blank        comment           code
-------------------------------------------------------------------------------
Python                          61            517            363           2077
HTML                            51            316              1           1970
Javascript                       5            198            203           1421
CSS                              1             53             19            274
YAML                             1              3              0             10
XML                              1              0              0              7
Bourne Shell                     1              1              1              7
-------------------------------------------------------------------------------
SUM:                           121           1088            587           5766
-------------------------------------------------------------------------------
